{
  "rabbit_version": "3.8.9",
  "rabbitmq_version": "3.8.9",
  "product_name": "RabbitMQ",
  "product_version": "3.8.9",
  "users": [
    {
      "name": "core",
      "password_hash": "zdyO9YGyg538G5NK9eNPzkTeR4svUBDe/nXMKdoB0LqWKaYF",
      "hashing_algorithm": "rabbit_password_hashing_sha256",
      "tags": ""
    },
    {
      "name": "guest",
      "password_hash": "AJEVq9GwX6uwku9+8eb3RkiFM3q0Uj1aju2QpHQ1V0vD5t9Y",
      "hashing_algorithm": "rabbit_password_hashing_sha256",
      "tags": "administrator"
    },
    {
      "name": "rmquser",
      "password_hash": "l/KctgIQ+KlpZnl57U+lc1qmrT2NFvnC3vGQw5i50f1IxH4r",
      "hashing_algorithm": "rabbit_password_hashing_sha256",
      "tags": "administrator"
    }
  ],
  "vhosts": [
    {
      "name": "/"
    }
  ],
  "permissions": [
    {
      "user": "core",
      "vhost": "/",
      "configure": ".*",
      "write": ".*",
      "read": ".*"
    },
    {
      "user": "rmquser",
      "vhost": "/",
      "configure": ".*",
      "write": ".*",
      "read": ".*"
    }
  ],
  "topic_permissions": [],
  "parameters": [],
  "global_parameters": [
    {
      "name": "cluster_name",
      "value": "rabbit@9f6f31e58d88"
    },
    {
      "name": "internal_cluster_id",
      "value": "rabbitmq-cluster-id-BcIyxXyrQdEtJHU9xDPYYQ"
    }
  ],
  "policies": [],
  "queues": [
    {
      "name": "category.created",
      "vhost": "/",
      "durable": true,
      "auto_delete": false,
      "arguments": {
        "x-queue-type": "classic"
      }
    },
    {
      "name": "category.deleted",
      "vhost": "/",
      "durable": true,
      "auto_delete": false,
      "arguments": {
        "x-queue-type": "classic"
      }
    }
  ],
  "exchanges": [
    {
      "name": "core",
      "vhost": "/",
      "type": "topic",
      "durable": true,
      "auto_delete": false,
      "internal": false,
      "arguments": {}
    }
  ],
  "bindings": [
    {
      "source": "core",
      "vhost": "/",
      "destination": "category.created",
      "destination_type": "queue",
      "routing_key": "core.category.created",
      "arguments": {}
    },
    {
      "source": "core",
      "vhost": "/",
      "destination": "category.deleted",
      "destination_type": "queue",
      "routing_key": "core.category.deleted",
      "arguments": {}
    }
  ]
}